# tracer=QSO_iPSFMAG_0-50 
#  delta,mean,err,jn
-6.749325735762153888e-01 9.970674299045610006e-03 2.038829476790372623e-03 9.181221383597620508e-03 1.009256890679253137e-02 1.004567488198910598e-02 9.868846205833860935e-03 1.007051256681958627e-02 1.004567488198910598e-02 9.952127214543481787e-03 1.011989639042990517e-02 1.008085103788631913e-02 9.300652046797393616e-03 1.011288802615425454e-02 1.006832657524954835e-02 1.008650354972863601e-02 1.019211467566971847e-02 1.013475700991689835e-02 9.793324661387617369e-03 1.008422261420384089e-02 1.013523357855585817e-02 9.871224540470780601e-03 1.008661584101382992e-02 1.011326319692444110e-02 1.011611286813695471e-02 1.007663020021780723e-02 9.755489430005101839e-03 1.005466799137537046e-02 1.011688545913674853e-02 9.768415035435257937e-03 1.009591206482798528e-02 1.011109879096120170e-02 9.109080047391086149e-03 9.492843620196804444e-03 1.002020869344880105e-02 1.002864528520791554e-02 1.008136618178271868e-02 1.007300752764475615e-02 1.002773243721483132e-02 1.009595488569657237e-02 1.011419283955706551e-02 1.003221203695679742e-02 1.005095625229107496e-02 1.009077343920701357e-02 1.009511288188913447e-02 1.006080943997274268e-02 1.002276142358379286e-02 1.003770419180525023e-02 1.005681260649729861e-02 1.005016674931916675e-02 1.009900716597087952e-02 1.008309437840199281e-02 1.008887575400648981e-02 9.931109657607978952e-03 1.007087304916439927e-02 1.008076618735602448e-02 1.002350739188636805e-02 9.893132292622902266e-03 1.003452734102983773e-02 9.646824066492884139e-03 1.011622322271973039e-02 9.400846267511489551e-03 1.011008367451603912e-02 1.011744437110342378e-02 9.572744755157864410e-03 1.000654556737152860e-02 9.732168563917689696e-03 1.013949183197718554e-02 1.007905185053310608e-02 1.003587670242913656e-02 1.003221203695679742e-02 1.001279661034357345e-02 1.004309136315950646e-02 9.567191342613275487e-03 1.007494066826035949e-02 1.012943470420557719e-02 1.002773243721483132e-02 9.741727087346637240e-03 1.002193713862279539e-02 1.001431760873708506e-02 1.005730123318922600e-02 1.010838008402637107e-02 9.648904857410931998e-03 1.009431974502702709e-02 9.500475099928689868e-03 1.013020992059597558e-02 1.004392227421551341e-02 9.833096216451181135e-03 1.006175303212661701e-02
-3.460951937028420855e-01 1.426145199874329951e-02 8.985162912858409619e-04 1.419005708884731043e-02 1.430754945311860094e-02 1.419642936471701526e-02 1.433418107016606532e-02 1.440663425319411994e-02 1.426805043459709703e-02 1.434358342634667674e-02 1.436052827408221960e-02 1.426962770686044345e-02 1.425342178984249919e-02 1.432027366366347802e-02 1.419404592068664039e-02 1.433031091177172124e-02 1.435433422089929002e-02 1.433278003334979150e-02 1.425814187865213738e-02 1.437428348746061166e-02 1.431619968662388095e-02 1.431377277819192301e-02 1.430081540037468277e-02 1.436932336636060660e-02 1.427318881599269444e-02 1.440667809391888397e-02 1.424780717280088420e-02 1.429329280722571767e-02 1.421574594789559026e-02 1.431022359985766740e-02 1.435266600012605545e-02 1.425562644790427311e-02 1.432113260396877460e-02 1.417295828864959147e-02 1.427467978287133565e-02 1.431732253993493395e-02 1.430954674659323800e-02 1.435762004787691226e-02 1.417657457271070086e-02 1.417392263406696933e-02 1.423393694413782433e-02 1.422873531600673397e-02 1.421633523808889590e-02 1.409050516846262376e-02 1.433514842209553282e-02 1.438190751334667006e-02 1.416171561136615742e-02 1.417957289846708338e-02 1.426372602319257547e-02 1.426193141927385374e-02 1.418757980462348814e-02 1.433882990722006034e-02 1.411575844474670730e-02 1.429713280511374016e-02 1.409757244345886951e-02 1.421407125859988282e-02 1.428506816352253725e-02 1.417682758245104174e-02 1.437633839975826534e-02 1.427943154116387975e-02 1.425626711309875561e-02 1.420899261408585003e-02 1.419766672935422400e-02 1.424839793615014644e-02 1.422855488171983866e-02 1.434321115949047099e-02 1.427815821292274107e-02 1.411201682500543182e-02 1.424005949853462440e-02 1.435238492249733648e-02 1.414111861556653464e-02 1.435168921861167818e-02 1.439346519884205852e-02 1.418193985196531878e-02 1.427369528516785231e-02 1.415281387934267353e-02 1.431158508540577266e-02 1.406011780842160268e-02 1.431675258382061021e-02 1.440232702913779930e-02 1.430243281328160733e-02 1.419015729025578654e-02 1.375072023243118120e-02 1.426508487740569403e-02 1.417844617211751722e-02 1.430194447812528982e-02 1.441102331404352753e-02 1.426670383505446345e-02 1.419168921276963563e-02
-1.778573312474414359e-02 1.458483076328675673e-02 7.091167586555332299e-04 1.451820041034610105e-02 1.468155859919454374e-02 1.458927688061264528e-02 1.461185432562101677e-02 1.462621760216507513e-02 1.462129365202127600e-02 1.457966124349386119e-02 1.466611540363506501e-02 1.463187032031186552e-02 1.464335790602803306e-02 1.470851831183042115e-02 1.462760402619137610e-02 1.459972689853886868e-02 1.467807302016161525e-02 1.445422029246541326e-02 1.458742159526394029e-02 1.464981073473003298e-02 1.455705335825184694e-02 1.461070983796621849e-02 1.463220809593943940e-02 1.454566088481999524e-02 1.459217897254566979e-02 1.471470026167296698e-02 1.447549985934475959e-02 1.450070228571157319e-02 1.450109698957416024e-02 1.459197273503546645e-02 1.464273989150985736e-02 1.455247227987881663e-02 1.450197815804138597e-02 1.448350758170301525e-02 1.452786351833601150e-02 1.452386889298854476e-02 1.464229226698102355e-02 1.464094478996843390e-02 1.453039602602605035e-02 1.457727211114925002e-02 1.452603357369301913e-02 1.448707309236822033e-02 1.462098896398516916e-02 1.458470882712378618e-02 1.461981913161887817e-02 1.462063137570250929e-02 1.459091276575154653e-02 1.452412558366138889e-02 1.456801246468660341e-02 1.455023522772801343e-02 1.464852275289545147e-02 1.469296583304121988e-02 1.454337862488526249e-02 1.461508429846064723e-02 1.458766725239069896e-02 1.457733250323720725e-02 1.444493180336702855e-02 1.461376504151442463e-02 1.473083594649052426e-02 1.456835110690729573e-02 1.457593891845831817e-02 1.462855783699226232e-02 1.458184466543921420e-02 1.438052658817499593e-02 1.459870421477159341e-02 1.465006915203193386e-02 1.447882228741474361e-02 1.452947822809605785e-02 1.446101815556036056e-02 1.455247925098399932e-02 1.449760762729712139e-02 1.460796842582029638e-02 1.472953462946328257e-02 1.460790090658216182e-02 1.460776109514429731e-02 1.451452229533423122e-02 1.470192690673918084e-02 1.456762046377040043e-02 1.461159332531247051e-02 1.480029285725021834e-02 1.462090508093468258e-02 1.439210412677049793e-02 1.451870072393880544e-02 1.447878718630490197e-02 1.462870032458110647e-02 1.463248273177534912e-02 1.472764414462218903e-02 1.458744154716878037e-02 1.448923575636323555e-02
3.291010829027760654e-01 1.420108251661457953e-02 1.075169942251442620e-03 1.406235464737988841e-02 1.433324608468856606e-02 1.420190674516585289e-02 1.430373892870454369e-02 1.445545928868592622e-02 1.407331055625601554e-02 1.425646828488792532e-02 1.434239654008527369e-02 1.413970170551924824e-02 1.424337559759332808e-02 1.432908084290852174e-02 1.414935315435390112e-02 1.413685848582143557e-02 1.430138301823068864e-02 1.420561392383921928e-02 1.413470712199895070e-02 1.431031511069111826e-02 1.399198058365611758e-02 1.415883877043285811e-02 1.420478768645535780e-02 1.419416323709768099e-02 1.423064669483345597e-02 1.427845449078186078e-02 1.422619944300580405e-02 1.428460222275675269e-02 1.420686063891443869e-02 1.428401840812158069e-02 1.427930832306206765e-02 1.428152831793096100e-02 1.429950729526757204e-02 1.404546985982375873e-02 1.395278542958264430e-02 1.429769006009773760e-02 1.416564235906229291e-02 1.429109759745393615e-02 1.419658470142669097e-02 1.423942058298646729e-02 1.419682619409893230e-02 1.424962282084204883e-02 1.412744325826931907e-02 1.426009863050639245e-02 1.424401958522998092e-02 1.403418280427943393e-02 1.429204838390525818e-02 1.420023669406272025e-02 1.418401407185968313e-02 1.402286263426318937e-02 1.397599171814621621e-02 1.421317710489000512e-02 1.404013933138529256e-02 1.426763640753620811e-02 1.400114441279218420e-02 1.434981088692265962e-02 1.403532798895381663e-02 1.419241019512776023e-02 1.439669825196838830e-02 1.411940674207009389e-02 1.400578175420519322e-02 1.420369538927001608e-02 1.397260968268893185e-02 1.428232214778144861e-02 1.404491542203447317e-02 1.426045665830261329e-02 1.412390235229843936e-02 1.414457486322572011e-02 1.428677686453046734e-02 1.428572267891129767e-02 1.420505039190349608e-02 1.420269519042868453e-02 1.438592971750672633e-02 1.429815754963408188e-02 1.419829355903950638e-02 1.383314621421304243e-02 1.432744706836211468e-02 1.410580939404120458e-02 1.440670744626293930e-02 1.426970151301067830e-02 1.426608492654037053e-02 1.416261704221708634e-02 1.408113237180096816e-02 1.426315877061227338e-02 1.426297352337065755e-02 1.429033250586167307e-02 1.430347897334988821e-02 1.426930340056800466e-02 1.405836420021158023e-02
6.942270203626899061e-01 1.647229594694476704e-02 8.445922328610159721e-03 1.706003005381604570e-02 1.681986955738551393e-02 1.466095687112187011e-02 1.692430014730703439e-02 1.689157693352322590e-02 1.657208062267522333e-02 1.542892664835425302e-02 1.697997020701715737e-02 1.666015414379392809e-02 1.659279754342303514e-02 1.648508286723649602e-02 1.651594079905774337e-02 1.656736733624728994e-02 1.648508286723649602e-02 1.652940292896333194e-02 1.671477069468110810e-02 1.650721314952403873e-02 1.657396194163115316e-02 1.678603519488176474e-02 1.646301184312773738e-02 1.650721314952403873e-02 1.661511045131727760e-02 1.710477719055478185e-02 8.625871368786491161e-03 1.653018572738955069e-02 1.655234760515082379e-02 1.648508286723649602e-02 1.656979467127683153e-02 1.675974718484967568e-02 1.668482772170400141e-02 1.665633935057020745e-02 1.653705592441799196e-02 1.662225813717129255e-02 1.651592557551226359e-02 1.646301184312773738e-02 1.646301184312773738e-02 1.650721314952403873e-02 1.646301184312773738e-02 1.655259371110833280e-02 1.641574225110165042e-02 1.617634860735482974e-02 1.648508286723649602e-02 1.664794197314727053e-02 1.650721314952403873e-02 1.666370775825020897e-02 1.666474599692693848e-02 1.655890208409258740e-02 1.655705337242253938e-02 1.660406200577286412e-02 1.653252824733808871e-02 1.656318294157500468e-02 1.696213963620233148e-02 1.666995623313610037e-02 1.673550385676287125e-02 1.537024500154306542e-02 1.741915184936349004e-02 1.641036022331244376e-02 1.649913230656233770e-02 1.681000122483165826e-02 1.656911078011267385e-02 1.660782612804107689e-02 1.665265081002927777e-02 1.676481694837464453e-02 1.653834898067740866e-02 1.647660878499183912e-02 1.652940292896333194e-02 1.667855927043443431e-02 1.670909216734205172e-02 1.663364075215087445e-02 1.683553342840184153e-02 1.676423349611387212e-02 1.646301184312773738e-02 1.649982470712206897e-02 1.650721314952403873e-02 1.654840549314162343e-02 1.657396194163115316e-02 1.674376194337129017e-02 1.690334006769443620e-02 1.669661996190687295e-02 1.647444572451125730e-02 1.675844323805705458e-02 1.646301184312773738e-02 1.648508286723649602e-02 1.648508286723649602e-02 1.580703582977894053e-02 1.676147223121092489e-02
